%YAML 1.1
%TAG !u! tag:unity3d.com,2011:
--- !u!1 &1780753773217287809
GameObject:
  m_ObjectHideFlags: 0
  m_CorrespondingSourceObject: {fileID: 0}
  m_PrefabInstance: {fileID: 0}
  m_PrefabAsset: {fileID: 0}
  serializedVersion: 6
  m_Component:
  - component: {fileID: 633048307894715559}
  m_Layer: 0
  m_Name: Battery
  m_TagString: Untagged
  m_Icon: {fileID: 0}
  m_NavMeshLayer: 0
  m_StaticEditorFlags: 0
  m_IsActive: 1
--- !u!4 &633048307894715559
Transform:
  m_ObjectHideFlags: 0
  m_CorrespondingSourceObject: {fileID: 0}
  m_PrefabInstance: {fileID: 0}
  m_PrefabAsset: {fileID: 0}
  m_GameObject: {fileID: 1780753773217287809}
  m_LocalRotation: {x: 0, y: 0, z: 0, w: 1}
  m_LocalPosition: {x: -41.5, y: -3.8, z: -30.3}
  m_LocalScale: {x: 0.79521, y: 0.79521, z: 0.79521}
  m_Children:
  - {fileID: 5360632806748433120}
  m_Father: {fileID: 0}
  m_RootOrder: 0
  m_LocalEulerAnglesHint: {x: 0, y: 0, z: 0}
--- !u!1001 &717649862395197513
PrefabInstance:
  m_ObjectHideFlags: 0
  serializedVersion: 2
  m_Modification:
    m_TransformParent: {fileID: 633048307894715559}
    m_Modifications:
    - target: {fileID: 4868762409745502889, guid: 090cf34aeebdd4e4c8d8421ab0d9be2e,
        type: 3}
      propertyPath: m_RootOrder
      value: 0
      objectReference: {fileID: 0}
    - target: {fileID: 4868762409745502889, guid: 090cf34aeebdd4e4c8d8421ab0d9be2e,
        type: 3}
      propertyPath: m_LocalPosition.x
      value: 0
      objectReference: {fileID: 0}
    - target: {fileID: 4868762409745502889, guid: 090cf34aeebdd4e4c8d8421ab0d9be2e,
        type: 3}
      propertyPath: m_LocalPosition.y
      value: 0
      objectReference: {fileID: 0}
    - target: {fileID: 4868762409745502889, guid: 090cf34aeebdd4e4c8d8421ab0d9be2e,
        type: 3}
      propertyPath: m_LocalPosition.z
      value: 0
      objectReference: {fileID: 0}
    - target: {fileID: 4868762409745502889, guid: 090cf34aeebdd4e4c8d8421ab0d9be2e,
        type: 3}
      propertyPath: m_LocalRotation.w
      value: 0.5
      objectReference: {fileID: 0}
    - target: {fileID: 4868762409745502889, guid: 090cf34aeebdd4e4c8d8421ab0d9be2e,
        type: 3}
      propertyPath: m_LocalRotation.x
      value: -0.5
      objectReference: {fileID: 0}
    - target: {fileID: 4868762409745502889, guid: 090cf34aeebdd4e4c8d8421ab0d9be2e,
        type: 3}
      propertyPath: m_LocalRotation.y
      value: 0.5
      objectReference: {fileID: 0}
    - target: {fileID: 4868762409745502889, guid: 090cf34aeebdd4e4c8d8421ab0d9be2e,
        type: 3}
      propertyPath: m_LocalRotation.z
      value: 0.5
      objectReference: {fileID: 0}
    - target: {fileID: 4868762409745502889, guid: 090cf34aeebdd4e4c8d8421ab0d9be2e,
        type: 3}
      propertyPath: m_LocalEulerAnglesHint.x
      value: -90
      objectReference: {fileID: 0}
    - target: {fileID: 4868762409745502889, guid: 090cf34aeebdd4e4c8d8421ab0d9be2e,
        type: 3}
      propertyPath: m_LocalEulerAnglesHint.y
      value: 90
      objectReference: {fileID: 0}
    - target: {fileID: 4868762409745502889, guid: 090cf34aeebdd4e4c8d8421ab0d9be2e,
        type: 3}
      propertyPath: m_LocalEulerAnglesHint.z
      value: 0
      objectReference: {fileID: 0}
    - target: {fileID: 5249650363947517971, guid: 090cf34aeebdd4e4c8d8421ab0d9be2e,
        type: 3}
      propertyPath: m_Name
      value: table
      objectReference: {fileID: 0}
    m_RemovedComponents: []
  m_SourcePrefab: {fileID: 100100000, guid: 090cf34aeebdd4e4c8d8421ab0d9be2e, type: 3}
--- !u!4 &5360632806748433120 stripped
Transform:
  m_CorrespondingSourceObject: {fileID: 4868762409745502889, guid: 090cf34aeebdd4e4c8d8421ab0d9be2e,
    type: 3}
  m_PrefabInstance: {fileID: 717649862395197513}
  m_PrefabAsset: {fileID: 0}
